<?xml version="1.0" standalone="no"?>
<!DOCTYPE svg PUBLIC "-//W3C//DTD SVG 20010904//EN"
 "http://www.w3.org/TR/2001/REC-SVG-20010904/DTD/svg10.dtd">
<svg version="1.0" xmlns="http://www.w3.org/2000/svg"
 width="324.000000pt" height="324.000000pt" viewBox="0 0 324.000000 324.000000"
 preserveAspectRatio="xMidYMid meet">

<g transform="translate(0.000000,324.000000) scale(0.100000,-0.100000)"
 width="24px"  fill="#224d98" stroke="none">
<path d="M1105 2815 c-320 -72 -561 -293 -660 -605 -37 -114 -46 -297 -21
-421 104 -511 619 -819 1116 -667 85 26 192 80 258 130 51 38 54 39 73 22 14
-13 19 -31 19 -73 l0 -56 338 -332 339 -331 96 95 95 96 -331 339 -332 338
-56 0 c-42 0 -60 5 -73 19 -17 19 -16 22 22 73 51 67 104 173 130 260 151 491
-156 1009 -660 1112 -93 19 -270 20 -353 1z m324 -267 c214 -52 395 -234 446
-450 32 -136 10 -305 -57 -431 -43 -81 -164 -202 -245 -245 -127 -67 -295 -89
-432 -57 -147 35 -302 148 -379 277 -169 283 -86 644 188 823 146 95 313 124
479 83z"/>
</g>
</svg>
