<svg xmlns="http://www.w3.org/2000/svg" viewBox="0 0 155.59 143.73">
    <defs>
        <style>.a{fill:#0f0606;}.b{fill:none;stroke:red;}</style>
    </defs>
    <ellipse cx="39.09" cy="28.28" rx="17.47" ry="17.87" />
    <path d="M108.52,42.2A16.46,16.46,0,1,1,125,25.74,16.45,16.45,0,0,1,108.52,42.2Z" transform="translate(0 -9.29)" />
    <circle cx="78.1" cy="43.48" r="18.78" />
    <circle cx="38.06" cy="72.55" r="20.2" />
    <circle cx="123.74" cy="56.87" r="19.42" />
    <circle cx="89.01" cy="87.28" r="21.34" />
    <path d="M0,0" transform="translate(0 -9.29)" />
    <path d="M0,117.28" transform="translate(0 -9.29)" />
    <path d="M0,118.64a5.27,5.27,0,0,1,3-4.71,80.29,80.29,0,0,1,34.59-8.24c7.88-.07,18.38,1.67,23.32,2.59,1.66.31,3.28.41,4,1.86,1.71,3.27,6,7.15,10.78,10.67.49.35-5.54,1.36-11.75,2.65a43.06,43.06,0,0,0-14.17,5.77c-3.74,2.34-4.87,5.3-5.57,9.19-.43,2.43-4.14,4.12-6.7,4.12H5.48A5.39,5.39,0,0,1,0,137.26Z" transform="translate(0 -9.29)" />
    <path d="M117,93.51a3.16,3.16,0,0,1,3-3.41,93.59,93.59,0,0,1,17.16,1.28,72.89,72.89,0,0,1,16.5,4.69A3.12,3.12,0,0,1,155.59,99v18.43a3.17,3.17,0,0,1-3.13,3.15c-38.7.61-47.32.06-47.35-.61,0-.51,2.38-2,6-5.74a22.94,22.94,0,0,0,4.65-8.77,26,26,0,0,0,1.38-9.73C117.07,94.86,117,94.14,117,93.51Z" transform="translate(0 -9.29)" />
    <path d="M127.27,140.19a7.13,7.13,0,0,0-3.42-5.89,69.47,69.47,0,0,0-69.8-.55A7.15,7.15,0,0,0,50.52,140v5.91A6.85,6.85,0,0,0,57.1,153h63.82a6.87,6.87,0,0,0,6.57-7.4Z" transform="translate(0 -9.29)" />
</svg>
