<?xml version="1.0" encoding="utf-8"?>
<!-- Generator: Adobe Illustrator 26.2.1, SVG Export Plug-In . SVG Version: 6.00 Build 0)  -->
<svg version="1.1" id="Capa_1" xmlns="http://www.w3.org/2000/svg" xmlns:xlink="http://www.w3.org/1999/xlink" x="0px" y="0px"
	 viewBox="0 0 207.4 207.4" style="enable-background:new 0 0 207.4 207.4;" xml:space="preserve">
<style type="text/css">
	.st0{fill:#1E4899;stroke:#1E4899;stroke-width:2;stroke-miterlimit:10;}
</style>
<g id="a">
</g>
<g id="b">
	<g>
		<path class="st0" d="M169.3,73c-0.5,2.9-1.7,7.1-4.6,11.3c-1.2,1.8-2.3,3-3.1,3.7c-7.6,7.7-15.3,15.3-22.9,23
			c-2.2,2.2-4.4,4.6-6.8,6.6c-5.6,4.8-12.2,7.2-19.6,7.1c-8.1-0.1-15.1-3-20.9-8.6c-2.5-2.4-2.6-6.2-0.3-8.6
			c2.3-2.5,6.1-2.6,8.6-0.3c2.6,2.5,5.6,4.3,9.1,4.9c6,1.2,11.4-0.2,15.9-4.5c6.4-6.2,12.7-12.6,19-19c2.9-2.9,5.8-5.7,8.6-8.6
			c6.6-6.7,7-17.2,1-24.1c-7-8.1-18.8-8.5-26.3-0.9c-7.6,7.5-10.6,10.7-18.1,18.2c-2.4,2.4-6,2.6-8.4,0.5c-2.6-2.2-2.9-6.1-0.6-8.6
			c2.2-2.4,0-0.2,2.3-2.5c5.7-5.7,11.4-11.5,17.2-17.1c2.4-2.3,3.8-3.2,5.2-4c7.9-4.8,16.5-4.4,22-3.5c1.8,0.4,4.1,1.1,6.7,2.4
			c0.9,0.5,3.1,1.6,5.5,3.5c2.5,2.1,4.6,4.4,6.4,7c1.8,2.7,2.7,5.1,3,6.1c0.3,0.8,1.2,3.7,1.6,7.5C170,67.9,169.7,70.7,169.3,73
			L169.3,73z"/>
		<path class="st0" d="M64.9,169.8c-1.8-0.1-3.1-0.4-3.7-0.5c-1-0.2-4.6-0.9-8.7-3.3c-2.2-1.2-4.2-2.8-6-4.6
			c-1.8-1.7-3.3-3.6-4.6-5.6c-1.7-2.8-2.6-5.1-2.9-6c-0.3-0.8-1.1-3.4-1.4-7c-0.2-1.9-0.2-4.8,0.4-8.4c1-5.2,3-8.8,3.6-9.9
			c1.7-2.9,3.5-4.8,4.4-5.7c9.3-9.3,18.6-18.6,27.9-27.9c4.5-4.4,9.9-7.2,16.2-8c9.8-1.4,18.4,1.3,25.6,8.2c2.5,2.4,2.6,6.2,0.3,8.7
			c-2.3,2.4-6.1,2.6-8.6,0.2c-2.6-2.5-5.6-4.3-9.2-4.9c-6-1.1-11.4,0.3-15.8,4.6c-6.6,6.4-13.1,13-19.6,19.5
			c-2.8,2.8-5.7,5.5-8.3,8.4c-4.7,5.1-6.2,11.1-4,17.7c2.2,6.7,6.9,10.8,13.8,12c6.1,1.1,11.4-0.7,15.8-5c7.5-7.5,9.5-10.2,17-17.7
			c1.5-1.5,3.2-2.4,5.3-2.2c2.5,0.2,4.2,1.6,5.1,3.8c0.9,2.3,0.5,4.5-1.2,6.3c-2,2.1-11.8,12.5-17.3,18.1c-2.8,2.9-6,5.1-9.5,6.7
			c-3,1.3-6.1,2-6.1,2c-1.4,0.3-2.6,0.4-3.3,0.5C69.2,169.8,67.3,170,64.9,169.8L64.9,169.8z"/>
	</g>
</g>
</svg>
