<?xml version="1.0" encoding="iso-8859-1"?>
<!-- Generator: Adobe Illustrator 19.0.0, SVG Export Plug-In . SVG Version: 6.00 Build 0)  -->
<svg version="1.1" id="Capa_1" xmlns="http://www.w3.org/2000/svg" xmlns:xlink="http://www.w3.org/1999/xlink" x="0px" y="0px"
	 viewBox="0 0 512.03 512.03" style="enable-background:new 0 0 512.03 512.03;" xml:space="preserve">
<g>
	<g>
		<path d="M492.272,424.96L374.512,320c23.04-30.72,35.84-71.68,35.84-115.2c0-112.64-92.16-204.8-204.8-204.8
			S0.752,92.16,0.752,204.8s92.16,204.8,204.8,204.8c43.52,0,81.92-12.8,115.2-35.84l104.96,117.76
			c15.36,23.04,51.2,28.16,71.68,7.68C517.872,478.72,515.312,442.88,492.272,424.96z M205.552,358.4
			c-84.48,0-153.6-69.12-153.6-153.6s69.12-153.6,153.6-153.6s153.6,69.12,153.6,153.6S290.032,358.4,205.552,358.4z"/>
	</g>
</g>
<g>
	<g>
		<rect x="179.952" y="179.2" width="51.2" height="128"/>
	</g>
</g>
<g>
	<g>
		<circle cx="205.552" cy="128" r="25.6"/>
	</g>
</g>
<g>
</g>
<g>
</g>
<g>
</g>
<g>
</g>
<g>
</g>
<g>
</g>
<g>
</g>
<g>
</g>
<g>
</g>
<g>
</g>
<g>
</g>
<g>
</g>
<g>
</g>
<g>
</g>
<g>
</g>
</svg>
