<?xml version="1.0" encoding="UTF-8" standalone="no"?>
<svg
   xmlns:dc="http://purl.org/dc/elements/1.1/"
   xmlns:cc="http://creativecommons.org/ns#"
   xmlns:rdf="http://www.w3.org/1999/02/22-rdf-syntax-ns#"
   xmlns:svg="http://www.w3.org/2000/svg"
   xmlns="http://www.w3.org/2000/svg"
   xmlns:sodipodi="http://sodipodi.sourceforge.net/DTD/sodipodi-0.dtd"
   xmlns:inkscape="http://www.inkscape.org/namespaces/inkscape"
   sodipodi:docname="stairs.svg"
   inkscape:version="1.0 (4035a4fb49, 2020-05-01)"
   id="svg858"
   version="1.1"
   viewBox="0 0 99.314827 75.644119"
   height="75.644119mm"
   width="99.314827mm">
  <defs
     id="defs852" />
  <sodipodi:namedview
     inkscape:window-maximized="0"
     inkscape:window-y="0"
     inkscape:window-x="128"
     inkscape:window-height="1030"
     inkscape:window-width="1339"
     fit-margin-bottom="0"
     fit-margin-right="0"
     fit-margin-left="0"
     fit-margin-top="0"
     showgrid="false"
     inkscape:document-rotation="0"
     inkscape:current-layer="layer1"
     inkscape:document-units="mm"
     inkscape:cy="311.52093"
     inkscape:cx="159.11013"
     inkscape:zoom="0.35"
     inkscape:pageshadow="2"
     inkscape:pageopacity="0.0"
     borderopacity="1.0"
     bordercolor="#666666"
     pagecolor="#ffffff"
     id="base" />
  <metadata
     id="metadata855">
    <rdf:RDF>
      <cc:Work
         rdf:about="">
        <dc:format>image/svg+xml</dc:format>
        <dc:type
           rdf:resource="http://purl.org/dc/dcmitype/StillImage" />
        <dc:title></dc:title>
      </cc:Work>
    </rdf:RDF>
  </metadata>
  <g
     transform="translate(-63.735444,-65.74342)"
     id="layer1"
     inkscape:groupmode="layer"
     inkscape:label="Capa 1">
    <path
       style="fill-opacity:1;stroke-width:0.265;stroke-miterlimit:4;stroke-dasharray:none"
       d="m 64.732592,141.02953 c -1.395313,-0.70598 -1.306356,-2.81862 0.14187,-3.36923 0.405952,-0.15434 5.172243,-0.25927 11.77721,-0.25927 h 11.095275 v -11.37708 c 0,-11.02431 0.0164,-11.3935 0.529167,-11.90625 0.512757,-0.51276 0.881944,-0.52917 11.906246,-0.52917 h 11.37709 v -11.37708 c 0,-11.024308 0.0164,-11.393494 0.52916,-11.906251 0.51276,-0.512758 0.88195,-0.529167 11.90625,-0.529167 h 11.37709 V 78.428259 c 0,-10.777442 0.0254,-11.379163 0.50563,-11.972396 l 0.50564,-0.624623 12.42206,-0.07362 c 7.90916,-0.04688 12.67749,0.02349 13.12515,0.193694 0.81403,0.309493 1.29565,1.349509 1.05991,2.288778 -0.34759,1.384892 -0.73024,1.427609 -12.78859,1.427609 h -11.12564 v 11.377084 c 0,11.024306 -0.0164,11.393492 -0.52916,11.906249 -0.51276,0.512757 -0.88195,0.529167 -11.90625,0.529167 h -11.37709 v 11.377079 c 0,11.02431 -0.0164,11.39349 -0.52916,11.90625 -0.51276,0.51276 -0.88195,0.52917 -11.90625,0.52917 H 91.451114 v 11.10005 c 0,7.57148 -0.09338,11.305 -0.293759,11.74478 -0.161567,0.3546 -0.58389,0.77692 -0.93849,0.93849 -0.973437,0.44353 -24.602985,0.40042 -25.486273,-0.0465 z"
       id="path839" />
  </g>
</svg>
